[{
    "month": "1月",
    "orderTotla": 202515,
    "returnTotla": 15000
}, {
    "month": "2月",
    "orderTotla": 188455,
    "returnTotla": 12000
}, {
    "month": "3月",
    "orderTotla": 180954,
    "returnTotla": 92120
}, {
    "month": "4月",
    "orderTotla": 332201,
    "returnTotla": 9120
}, {
    "month": "5月",
    "orderTotla": 512205,
    "returnTotla": 5140
}, {
    "month": "6月",
    "orderTotla": 711404,
    "returnTotla": 4510
},{
    "month": "7月",
    "orderTotla": 202503,
    "returnTotla": 68127
}, {
    "month": "8月",
    "orderTotla": 388202,
    "returnTotla": 91199
}, {
    "month": "9月",
    "orderTotla": 18090,
    "returnTotla": 7568
}, {
    "month": "10月",
    "orderTotla": 532201,
    "returnTotla": 1125
}, {
    "month": "11月",
    "orderTotla": 812201,
    "returnTotla": 5650
}, {
    "month": "12月",
    "orderTotla": 211401,
    "returnTotla": 52100
}]